####################
# emojis - Animals #
####################

+-----------------------------------------+
|               Animals                   |
+-----------------------------------------+

 1   U+1F435   🐵   Monkey face
--------------------------------------------------------
 2   U+1F431   🐱   Cat face
--------------------------------------------------------
 3   U+1F42E   🐮   Cow face
--------------------------------------------------------
 4   U+1F42D   🐭   Mouse face
--------------------------------------------------------
 5   U+1F43F   🐿   Chipmunk
--------------------------------------------------------
